^C:\USERS\DREW\DOCUMENTS\DSAII\OPENGL ABSOLUTE\OPENGL-TUTORIAL_V0014_33\CMAKELISTS.TXT
C:\USERS\DREW\DOCUMENTS\DSAII\OPENGL ABSOLUTE\OPENGL-TUTORIAL_V0014_33\BUILD\CMAKEFILES\2.8.12.2\CMAKESYSTEM.CMAKE
C:\USERS\DREW\DOCUMENTS\DSAII\OPENGL ABSOLUTE\OPENGL-TUTORIAL_V0014_33\BUILD\CMAKEFILES\2.8.12.2\CMAKECCOMPILER.CMAKE
C:\USERS\DREW\DOCUMENTS\DSAII\OPENGL ABSOLUTE\OPENGL-TUTORIAL_V0014_33\BUILD\CMAKEFILES\2.8.12.2\CMAKECXXCOMPILER.CMAKE
C:\PROGRAM FILES (X86)\CMAKE 2.8\SHARE\CMAKE-2.8\MODULES\CMAKESYSTEMSPECIFICINFORMATION.CMAKE
C:\PROGRAM FILES (X86)\CMAKE 2.8\SHARE\CMAKE-2.8\MODULES\CMAKEGENERICSYSTEM.CMAKE
C:\PROGRAM FILES (X86)\CMAKE 2.8\SHARE\CMAKE-2.8\MODULES\PLATFORM\WINDOWS.CMAKE
C:\PROGRAM FILES (X86)\CMAKE 2.8\SHARE\CMAKE-2.8\MODULES\PLATFORM\WINDOWSPATHS.CMAKE
C:\PROGRAM FILES (X86)\CMAKE 2.8\SHARE\CMAKE-2.8\MODULES\CMAKECINFORMATION.CMAKE
C:\PROGRAM FILES (X86)\CMAKE 2.8\SHARE\CMAKE-2.8\MODULES\PLATFORM\WINDOWS-MSVC-C.CMAKE
C:\PROGRAM FILES (X86)\CMAKE 2.8\SHARE\CMAKE-2.8\MODULES\PLATFORM\WINDOWS-MSVC.CMAKE
C:\USERS\DREW\DOCUMENTS\DSAII\OPENGL ABSOLUTE\OPENGL-TUTORIAL_V0014_33\BUILD\CMAKEFILES\2.8.12.2\CMAKERCCOMPILER.CMAKE
C:\PROGRAM FILES (X86)\CMAKE 2.8\SHARE\CMAKE-2.8\MODULES\CMAKERCINFORMATION.CMAKE
C:\PROGRAM FILES (X86)\CMAKE 2.8\SHARE\CMAKE-2.8\MODULES\CMAKECOMMONLANGUAGEINCLUDE.CMAKE
C:\PROGRAM FILES (X86)\CMAKE 2.8\SHARE\CMAKE-2.8\MODULES\CMAKECXXINFORMATION.CMAKE
C:\PROGRAM FILES (X86)\CMAKE 2.8\SHARE\CMAKE-2.8\MODULES\PLATFORM\WINDOWS-MSVC-CXX.CMAKE
C:\PROGRAM FILES (X86)\CMAKE 2.8\SHARE\CMAKE-2.8\MODULES\FINDOPENGL.CMAKE
C:\PROGRAM FILES (X86)\CMAKE 2.8\SHARE\CMAKE-2.8\MODULES\FINDPACKAGEHANDLESTANDARDARGS.CMAKE
C:\PROGRAM FILES (X86)\CMAKE 2.8\SHARE\CMAKE-2.8\MODULES\FINDPACKAGEMESSAGE.CMAKE
C:\PROGRAM FILES (X86)\CMAKE 2.8\SHARE\CMAKE-2.8\MODULES\CMAKEPARSEARGUMENTS.CMAKE
C:\USERS\DREW\DOCUMENTS\DSAII\OPENGL ABSOLUTE\OPENGL-TUTORIAL_V0014_33\EXTERNAL\RPAVLIK-CMAKE-MODULES-1C73E35\CREATELAUNCHERS.CMAKE
C:\USERS\DREW\DOCUMENTS\DSAII\OPENGL ABSOLUTE\OPENGL-TUTORIAL_V0014_33\EXTERNAL\RPAVLIK-CMAKE-MODULES-1C73E35\CLEANDIRECTORYLIST.CMAKE
C:\USERS\DREW\DOCUMENTS\DSAII\OPENGL ABSOLUTE\OPENGL-TUTORIAL_V0014_33\EXTERNAL\RPAVLIK-CMAKE-MODULES-1C73E35\MSVCMULTIPLEPROCESSCOMPILE.CMAKE
C:\USERS\DREW\DOCUMENTS\DSAII\OPENGL ABSOLUTE\OPENGL-TUTORIAL_V0014_33\EXTERNAL\RPAVLIK-CMAKE-MODULES-1C73E35\LISTCOMBINATIONS.CMAKE
C:\USERS\DREW\DOCUMENTS\DSAII\OPENGL ABSOLUTE\OPENGL-TUTORIAL_V0014_33\EXTERNAL\RPAVLIK-CMAKE-MODULES-1C73E35\LAUNCHER-TEMPLATES\VCXPROJ.USER.IN
C:\USERS\DREW\DOCUMENTS\DSAII\OPENGL ABSOLUTE\OPENGL-TUTORIAL_V0014_33\EXTERNAL\RPAVLIK-CMAKE-MODULES-1C73E35\LAUNCHER-TEMPLATES\TARGETLAUNCHER.CMD.IN
