^C:\USERS\DREW\DOCUMENTS\DSAII\OPENGL ABSOLUTE\OPENGL-TUTORIAL_V0014_33\COMMON\SHADER.CPP
C:\PROGRAM FILES (X86)\MICROSOFT VISUAL STUDIO 11.0\VC\INCLUDE\STDIO.H
C:\PROGRAM FILES (X86)\MICROSOFT VISUAL STUDIO 11.0\VC\INCLUDE\CRTDEFS.H
C:\PROGRAM FILES (X86)\MICROSOFT VISUAL STUDIO 11.0\VC\INCLUDE\SAL.H
C:\PROGRAM FILES (X86)\MICROSOFT VISUAL STUDIO 11.0\VC\INCLUDE\CONCURRENCYSAL.H
C:\PROGRAM FILES (X86)\MICROSOFT VISUAL STUDIO 11.0\VC\INCLUDE\VADEFS.H
C:\PROGRAM FILES (X86)\MICROSOFT VISUAL STUDIO 11.0\VC\INCLUDE\SWPRINTF.INL
C:\PROGRAM FILES (X86)\MICROSOFT VISUAL STUDIO 11.0\VC\INCLUDE\STRING
C:\PROGRAM FILES (X86)\MICROSOFT VISUAL STUDIO 11.0\VC\INCLUDE\ITERATOR
C:\PROGRAM FILES (X86)\MICROSOFT VISUAL STUDIO 11.0\VC\INCLUDE\ISTREAM
C:\PROGRAM FILES (X86)\MICROSOFT VISUAL STUDIO 11.0\VC\INCLUDE\OSTREAM
C:\PROGRAM FILES (X86)\MICROSOFT VISUAL STUDIO 11.0\VC\INCLUDE\IOS
C:\PROGRAM FILES (X86)\MICROSOFT VISUAL STUDIO 11.0\VC\INCLUDE\XLOCNUM
C:\PROGRAM FILES (X86)\MICROSOFT VISUAL STUDIO 11.0\VC\INCLUDE\CLIMITS
C:\PROGRAM FILES (X86)\MICROSOFT VISUAL STUDIO 11.0\VC\INCLUDE\YVALS.H
C:\PROGRAM FILES (X86)\MICROSOFT VISUAL STUDIO 11.0\VC\INCLUDE\XKEYCHECK.H
C:\PROGRAM FILES (X86)\MICROSOFT VISUAL STUDIO 11.0\VC\INCLUDE\USE_ANSI.H
C:\PROGRAM FILES (X86)\MICROSOFT VISUAL STUDIO 11.0\VC\INCLUDE\LIMITS.H
C:\PROGRAM FILES (X86)\MICROSOFT VISUAL STUDIO 11.0\VC\INCLUDE\CMATH
C:\PROGRAM FILES (X86)\MICROSOFT VISUAL STUDIO 11.0\VC\INCLUDE\MATH.H
C:\PROGRAM FILES (X86)\MICROSOFT VISUAL STUDIO 11.0\VC\INCLUDE\XTGMATH.H
C:\PROGRAM FILES (X86)\MICROSOFT VISUAL STUDIO 11.0\VC\INCLUDE\XTR1COMMON
C:\PROGRAM FILES (X86)\MICROSOFT VISUAL STUDIO 11.0\VC\INCLUDE\CSTDIO
C:\PROGRAM FILES (X86)\MICROSOFT VISUAL STUDIO 11.0\VC\INCLUDE\CSTDLIB
C:\PROGRAM FILES (X86)\MICROSOFT VISUAL STUDIO 11.0\VC\INCLUDE\STDLIB.H
C:\PROGRAM FILES (X86)\MICROSOFT VISUAL STUDIO 11.0\VC\INCLUDE\STREAMBUF
C:\PROGRAM FILES (X86)\MICROSOFT VISUAL STUDIO 11.0\VC\INCLUDE\XIOSBASE
C:\PROGRAM FILES (X86)\MICROSOFT VISUAL STUDIO 11.0\VC\INCLUDE\XLOCALE
C:\PROGRAM FILES (X86)\MICROSOFT VISUAL STUDIO 11.0\VC\INCLUDE\CSTRING
C:\PROGRAM FILES (X86)\MICROSOFT VISUAL STUDIO 11.0\VC\INCLUDE\STRING.H
C:\PROGRAM FILES (X86)\MICROSOFT VISUAL STUDIO 11.0\VC\INCLUDE\STDEXCEPT
C:\PROGRAM FILES (X86)\MICROSOFT VISUAL STUDIO 11.0\VC\INCLUDE\EXCEPTION
C:\PROGRAM FILES (X86)\MICROSOFT VISUAL STUDIO 11.0\VC\INCLUDE\XSTDDEF
C:\PROGRAM FILES (X86)\MICROSOFT VISUAL STUDIO 11.0\VC\INCLUDE\CSTDDEF
C:\PROGRAM FILES (X86)\MICROSOFT VISUAL STUDIO 11.0\VC\INCLUDE\STDDEF.H
C:\PROGRAM FILES (X86)\MICROSOFT VISUAL STUDIO 11.0\VC\INCLUDE\EH.H
C:\PROGRAM FILES (X86)\MICROSOFT VISUAL STUDIO 11.0\VC\INCLUDE\MALLOC.H
C:\PROGRAM FILES (X86)\MICROSOFT VISUAL STUDIO 11.0\VC\INCLUDE\XSTRING
C:\PROGRAM FILES (X86)\MICROSOFT VISUAL STUDIO 11.0\VC\INCLUDE\XMEMORY0
C:\PROGRAM FILES (X86)\MICROSOFT VISUAL STUDIO 11.0\VC\INCLUDE\LIMITS
C:\PROGRAM FILES (X86)\MICROSOFT VISUAL STUDIO 11.0\VC\INCLUDE\YMATH.H
C:\PROGRAM FILES (X86)\MICROSOFT VISUAL STUDIO 11.0\VC\INCLUDE\CFLOAT
C:\PROGRAM FILES (X86)\MICROSOFT VISUAL STUDIO 11.0\VC\INCLUDE\FLOAT.H
C:\PROGRAM FILES (X86)\MICROSOFT VISUAL STUDIO 11.0\VC\INCLUDE\CRTWRN.H
C:\PROGRAM FILES (X86)\MICROSOFT VISUAL STUDIO 11.0\VC\INCLUDE\CWCHAR
C:\PROGRAM FILES (X86)\MICROSOFT VISUAL STUDIO 11.0\VC\INCLUDE\WCHAR.H
C:\PROGRAM FILES (X86)\MICROSOFT VISUAL STUDIO 11.0\VC\INCLUDE\WTIME.INL
C:\PROGRAM FILES (X86)\MICROSOFT VISUAL STUDIO 11.0\VC\INCLUDE\NEW
C:\PROGRAM FILES (X86)\MICROSOFT VISUAL STUDIO 11.0\VC\INCLUDE\XUTILITY
C:\PROGRAM FILES (X86)\MICROSOFT VISUAL STUDIO 11.0\VC\INCLUDE\UTILITY
C:\PROGRAM FILES (X86)\MICROSOFT VISUAL STUDIO 11.0\VC\INCLUDE\IOSFWD
C:\PROGRAM FILES (X86)\MICROSOFT VISUAL STUDIO 11.0\VC\INCLUDE\CRTDBG.H
C:\PROGRAM FILES (X86)\MICROSOFT VISUAL STUDIO 11.0\VC\INCLUDE\TYPE_TRAITS
C:\PROGRAM FILES (X86)\MICROSOFT VISUAL STUDIO 11.0\VC\INCLUDE\XREFWRAP
C:\PROGRAM FILES (X86)\MICROSOFT VISUAL STUDIO 11.0\VC\INCLUDE\XATOMIC0.H
C:\PROGRAM FILES (X86)\MICROSOFT VISUAL STUDIO 11.0\VC\INCLUDE\INTRIN.H
C:\PROGRAM FILES (X86)\MICROSOFT VISUAL STUDIO 11.0\VC\INCLUDE\SETJMP.H
C:\PROGRAM FILES (X86)\MICROSOFT VISUAL STUDIO 11.0\VC\INCLUDE\IMMINTRIN.H
C:\PROGRAM FILES (X86)\MICROSOFT VISUAL STUDIO 11.0\VC\INCLUDE\WMMINTRIN.H
C:\PROGRAM FILES (X86)\MICROSOFT VISUAL STUDIO 11.0\VC\INCLUDE\NMMINTRIN.H
C:\PROGRAM FILES (X86)\MICROSOFT VISUAL STUDIO 11.0\VC\INCLUDE\SMMINTRIN.H
C:\PROGRAM FILES (X86)\MICROSOFT VISUAL STUDIO 11.0\VC\INCLUDE\TMMINTRIN.H
C:\PROGRAM FILES (X86)\MICROSOFT VISUAL STUDIO 11.0\VC\INCLUDE\PMMINTRIN.H
C:\PROGRAM FILES (X86)\MICROSOFT VISUAL STUDIO 11.0\VC\INCLUDE\EMMINTRIN.H
C:\PROGRAM FILES (X86)\MICROSOFT VISUAL STUDIO 11.0\VC\INCLUDE\XMMINTRIN.H
C:\PROGRAM FILES (X86)\MICROSOFT VISUAL STUDIO 11.0\VC\INCLUDE\MMINTRIN.H
C:\PROGRAM FILES (X86)\MICROSOFT VISUAL STUDIO 11.0\VC\INCLUDE\AMMINTRIN.H
C:\PROGRAM FILES (X86)\MICROSOFT VISUAL STUDIO 11.0\VC\INCLUDE\TYPEINFO
C:\PROGRAM FILES (X86)\MICROSOFT VISUAL STUDIO 11.0\VC\INCLUDE\XLOCINFO
C:\PROGRAM FILES (X86)\MICROSOFT VISUAL STUDIO 11.0\VC\INCLUDE\XLOCINFO.H
C:\PROGRAM FILES (X86)\MICROSOFT VISUAL STUDIO 11.0\VC\INCLUDE\CTYPE.H
C:\PROGRAM FILES (X86)\MICROSOFT VISUAL STUDIO 11.0\VC\INCLUDE\LOCALE.H
C:\PROGRAM FILES (X86)\MICROSOFT VISUAL STUDIO 11.0\VC\INCLUDE\XDEBUG
C:\PROGRAM FILES (X86)\MICROSOFT VISUAL STUDIO 11.0\VC\INCLUDE\XMEMORY
C:\PROGRAM FILES (X86)\MICROSOFT VISUAL STUDIO 11.0\VC\INCLUDE\XFACET
C:\PROGRAM FILES (X86)\MICROSOFT VISUAL STUDIO 11.0\VC\INCLUDE\SYSTEM_ERROR
C:\PROGRAM FILES (X86)\MICROSOFT VISUAL STUDIO 11.0\VC\INCLUDE\CERRNO
C:\PROGRAM FILES (X86)\MICROSOFT VISUAL STUDIO 11.0\VC\INCLUDE\ERRNO.H
C:\PROGRAM FILES (X86)\MICROSOFT VISUAL STUDIO 11.0\VC\INCLUDE\SHARE.H
C:\PROGRAM FILES (X86)\MICROSOFT VISUAL STUDIO 11.0\VC\INCLUDE\VECTOR
C:\PROGRAM FILES (X86)\MICROSOFT VISUAL STUDIO 11.0\VC\INCLUDE\IOSTREAM
C:\PROGRAM FILES (X86)\MICROSOFT VISUAL STUDIO 11.0\VC\INCLUDE\FSTREAM
C:\PROGRAM FILES (X86)\MICROSOFT VISUAL STUDIO 11.0\VC\INCLUDE\ALGORITHM
C:\USERS\DREW\DOCUMENTS\DSAII\OPENGL ABSOLUTE\OPENGL-TUTORIAL_V0014_33\EXTERNAL\GLEW-1.9.0\INCLUDE\GL\GLEW.H
C:\PROGRAM FILES (X86)\WINDOWS KITS\8.0\INCLUDE\UM\GL\GLU.H
C:\PROGRAM FILES (X86)\WINDOWS KITS\8.0\INCLUDE\SHARED\WINAPIFAMILY.H
C:\PROGRAM FILES (X86)\WINDOWS KITS\8.0\INCLUDE\UM\GL\GL.H
C:\USERS\DREW\DOCUMENTS\DSAII\OPENGL ABSOLUTE\OPENGL-TUTORIAL_V0014_33\COMMON\SHADER.HPP
^C:\USERS\DREW\DOCUMENTS\DSAII\OPENGL ABSOLUTE\OPENGL-TUTORIAL_V0014_33\TUTORIAL06_KEYBOARD_AND_MOUSE\TUTORIAL06.CPP
C:\PROGRAM FILES (X86)\MICROSOFT VISUAL STUDIO 11.0\VC\INCLUDE\STDIO.H
C:\PROGRAM FILES (X86)\MICROSOFT VISUAL STUDIO 11.0\VC\INCLUDE\CRTDEFS.H
C:\PROGRAM FILES (X86)\MICROSOFT VISUAL STUDIO 11.0\VC\INCLUDE\SAL.H
C:\PROGRAM FILES (X86)\MICROSOFT VISUAL STUDIO 11.0\VC\INCLUDE\CONCURRENCYSAL.H
C:\PROGRAM FILES (X86)\MICROSOFT VISUAL STUDIO 11.0\VC\INCLUDE\VADEFS.H
C:\PROGRAM FILES (X86)\MICROSOFT VISUAL STUDIO 11.0\VC\INCLUDE\SWPRINTF.INL
C:\PROGRAM FILES (X86)\MICROSOFT VISUAL STUDIO 11.0\VC\INCLUDE\STDLIB.H
C:\PROGRAM FILES (X86)\MICROSOFT VISUAL STUDIO 11.0\VC\INCLUDE\LIMITS.H
C:\USERS\DREW\DOCUMENTS\DSAII\OPENGL ABSOLUTE\OPENGL-TUTORIAL_V0014_33\EXTERNAL\GLEW-1.9.0\INCLUDE\GL\GLEW.H
C:\PROGRAM FILES (X86)\WINDOWS KITS\8.0\INCLUDE\UM\GL\GLU.H
C:\PROGRAM FILES (X86)\WINDOWS KITS\8.0\INCLUDE\SHARED\WINAPIFAMILY.H
C:\PROGRAM FILES (X86)\WINDOWS KITS\8.0\INCLUDE\UM\GL\GL.H
C:\USERS\DREW\DOCUMENTS\DSAII\OPENGL ABSOLUTE\OPENGL-TUTORIAL_V0014_33\EXTERNAL\GLFW-3.0.3\INCLUDE\GLFW\GLFW3.H
C:\PROGRAM FILES (X86)\MICROSOFT VISUAL STUDIO 11.0\VC\INCLUDE\STDDEF.H
C:\USERS\DREW\DOCUMENTS\DSAII\OPENGL ABSOLUTE\OPENGL-TUTORIAL_V0014_33\EXTERNAL\GLM-0.9.4.0\GLM\GLM.HPP
C:\USERS\DREW\DOCUMENTS\DSAII\OPENGL ABSOLUTE\OPENGL-TUTORIAL_V0014_33\EXTERNAL\GLM-0.9.4.0\GLM\CORE\_FIXES.HPP
C:\PROGRAM FILES (X86)\MICROSOFT VISUAL STUDIO 11.0\VC\INCLUDE\CMATH
C:\PROGRAM FILES (X86)\MICROSOFT VISUAL STUDIO 11.0\VC\INCLUDE\YVALS.H
C:\PROGRAM FILES (X86)\MICROSOFT VISUAL STUDIO 11.0\VC\INCLUDE\XKEYCHECK.H
C:\PROGRAM FILES (X86)\MICROSOFT VISUAL STUDIO 11.0\VC\INCLUDE\USE_ANSI.H
C:\PROGRAM FILES (X86)\MICROSOFT VISUAL STUDIO 11.0\VC\INCLUDE\MATH.H
C:\PROGRAM FILES (X86)\MICROSOFT VISUAL STUDIO 11.0\VC\INCLUDE\XTGMATH.H
C:\PROGRAM FILES (X86)\MICROSOFT VISUAL STUDIO 11.0\VC\INCLUDE\XTR1COMMON
C:\PROGRAM FILES (X86)\MICROSOFT VISUAL STUDIO 11.0\VC\INCLUDE\CLIMITS
C:\PROGRAM FILES (X86)\MICROSOFT VISUAL STUDIO 11.0\VC\INCLUDE\CFLOAT
C:\PROGRAM FILES (X86)\MICROSOFT VISUAL STUDIO 11.0\VC\INCLUDE\FLOAT.H
C:\PROGRAM FILES (X86)\MICROSOFT VISUAL STUDIO 11.0\VC\INCLUDE\CRTWRN.H
C:\PROGRAM FILES (X86)\MICROSOFT VISUAL STUDIO 11.0\VC\INCLUDE\LIMITS
C:\PROGRAM FILES (X86)\MICROSOFT VISUAL STUDIO 11.0\VC\INCLUDE\YMATH.H
C:\PROGRAM FILES (X86)\MICROSOFT VISUAL STUDIO 11.0\VC\INCLUDE\CWCHAR
C:\PROGRAM FILES (X86)\MICROSOFT VISUAL STUDIO 11.0\VC\INCLUDE\WCHAR.H
C:\PROGRAM FILES (X86)\MICROSOFT VISUAL STUDIO 11.0\VC\INCLUDE\WTIME.INL
C:\PROGRAM FILES (X86)\MICROSOFT VISUAL STUDIO 11.0\VC\INCLUDE\XSTDDEF
C:\PROGRAM FILES (X86)\MICROSOFT VISUAL STUDIO 11.0\VC\INCLUDE\CSTDDEF
C:\PROGRAM FILES (X86)\MICROSOFT VISUAL STUDIO 11.0\VC\INCLUDE\CSTDIO
C:\USERS\DREW\DOCUMENTS\DSAII\OPENGL ABSOLUTE\OPENGL-TUTORIAL_V0014_33\EXTERNAL\GLM-0.9.4.0\GLM\CORE\SETUP.HPP
C:\PROGRAM FILES (X86)\MICROSOFT VISUAL STUDIO 11.0\VC\INCLUDE\IMMINTRIN.H
C:\PROGRAM FILES (X86)\MICROSOFT VISUAL STUDIO 11.0\VC\INCLUDE\WMMINTRIN.H
C:\PROGRAM FILES (X86)\MICROSOFT VISUAL STUDIO 11.0\VC\INCLUDE\NMMINTRIN.H
C:\PROGRAM FILES (X86)\MICROSOFT VISUAL STUDIO 11.0\VC\INCLUDE\SMMINTRIN.H
C:\PROGRAM FILES (X86)\MICROSOFT VISUAL STUDIO 11.0\VC\INCLUDE\TMMINTRIN.H
C:\PROGRAM FILES (X86)\MICROSOFT VISUAL STUDIO 11.0\VC\INCLUDE\PMMINTRIN.H
C:\PROGRAM FILES (X86)\MICROSOFT VISUAL STUDIO 11.0\VC\INCLUDE\EMMINTRIN.H
C:\PROGRAM FILES (X86)\MICROSOFT VISUAL STUDIO 11.0\VC\INCLUDE\XMMINTRIN.H
C:\PROGRAM FILES (X86)\MICROSOFT VISUAL STUDIO 11.0\VC\INCLUDE\MMINTRIN.H
C:\PROGRAM FILES (X86)\MICROSOFT VISUAL STUDIO 11.0\VC\INCLUDE\MALLOC.H
C:\USERS\DREW\DOCUMENTS\DSAII\OPENGL ABSOLUTE\OPENGL-TUTORIAL_V0014_33\EXTERNAL\GLM-0.9.4.0\GLM\CORE\_DETAIL.HPP
C:\PROGRAM FILES (X86)\MICROSOFT VISUAL STUDIO 11.0\VC\INCLUDE\CASSERT
C:\PROGRAM FILES (X86)\MICROSOFT VISUAL STUDIO 11.0\VC\INCLUDE\ASSERT.H
C:\USERS\DREW\DOCUMENTS\DSAII\OPENGL ABSOLUTE\OPENGL-TUTORIAL_V0014_33\EXTERNAL\GLM-0.9.4.0\GLM\CORE\_VECTORIZE.HPP
C:\USERS\DREW\DOCUMENTS\DSAII\OPENGL ABSOLUTE\OPENGL-TUTORIAL_V0014_33\EXTERNAL\GLM-0.9.4.0\GLM\CORE\TYPE.HPP
C:\USERS\DREW\DOCUMENTS\DSAII\OPENGL ABSOLUTE\OPENGL-TUTORIAL_V0014_33\EXTERNAL\GLM-0.9.4.0\GLM\CORE\TYPE_HALF.HPP
C:\PROGRAM FILES (X86)\MICROSOFT VISUAL STUDIO 11.0\VC\INCLUDE\CSTDLIB
C:\USERS\DREW\DOCUMENTS\DSAII\OPENGL ABSOLUTE\OPENGL-TUTORIAL_V0014_33\EXTERNAL\GLM-0.9.4.0\GLM\CORE\TYPE_HALF.INL
C:\USERS\DREW\DOCUMENTS\DSAII\OPENGL ABSOLUTE\OPENGL-TUTORIAL_V0014_33\EXTERNAL\GLM-0.9.4.0\GLM\CORE\TYPE_FLOAT.HPP
C:\USERS\DREW\DOCUMENTS\DSAII\OPENGL ABSOLUTE\OPENGL-TUTORIAL_V0014_33\EXTERNAL\GLM-0.9.4.0\GLM\CORE\TYPE_INT.HPP
C:\USERS\DREW\DOCUMENTS\DSAII\OPENGL ABSOLUTE\OPENGL-TUTORIAL_V0014_33\EXTERNAL\GLM-0.9.4.0\GLM\CORE\TYPE_GENTYPE.HPP
C:\USERS\DREW\DOCUMENTS\DSAII\OPENGL ABSOLUTE\OPENGL-TUTORIAL_V0014_33\EXTERNAL\GLM-0.9.4.0\GLM\CORE\TYPE_SIZE.HPP
C:\USERS\DREW\DOCUMENTS\DSAII\OPENGL ABSOLUTE\OPENGL-TUTORIAL_V0014_33\EXTERNAL\GLM-0.9.4.0\GLM\CORE\TYPE_VEC1.HPP
C:\USERS\DREW\DOCUMENTS\DSAII\OPENGL ABSOLUTE\OPENGL-TUTORIAL_V0014_33\EXTERNAL\GLM-0.9.4.0\GLM\CORE\TYPE_VEC.HPP
C:\USERS\DREW\DOCUMENTS\DSAII\OPENGL ABSOLUTE\OPENGL-TUTORIAL_V0014_33\EXTERNAL\GLM-0.9.4.0\GLM\CORE\_SWIZZLE.HPP
C:\USERS\DREW\DOCUMENTS\DSAII\OPENGL ABSOLUTE\OPENGL-TUTORIAL_V0014_33\EXTERNAL\GLM-0.9.4.0\GLM\CORE\_SWIZZLE_FUNC.HPP
C:\USERS\DREW\DOCUMENTS\DSAII\OPENGL ABSOLUTE\OPENGL-TUTORIAL_V0014_33\EXTERNAL\GLM-0.9.4.0\GLM\CORE\TYPE_VEC1.INL
C:\USERS\DREW\DOCUMENTS\DSAII\OPENGL ABSOLUTE\OPENGL-TUTORIAL_V0014_33\EXTERNAL\GLM-0.9.4.0\GLM\CORE\TYPE_VEC2.HPP
C:\USERS\DREW\DOCUMENTS\DSAII\OPENGL ABSOLUTE\OPENGL-TUTORIAL_V0014_33\EXTERNAL\GLM-0.9.4.0\GLM\CORE\TYPE_VEC2.INL
C:\USERS\DREW\DOCUMENTS\DSAII\OPENGL ABSOLUTE\OPENGL-TUTORIAL_V0014_33\EXTERNAL\GLM-0.9.4.0\GLM\CORE\TYPE_VEC3.HPP
C:\USERS\DREW\DOCUMENTS\DSAII\OPENGL ABSOLUTE\OPENGL-TUTORIAL_V0014_33\EXTERNAL\GLM-0.9.4.0\GLM\CORE\TYPE_VEC3.INL
C:\USERS\DREW\DOCUMENTS\DSAII\OPENGL ABSOLUTE\OPENGL-TUTORIAL_V0014_33\EXTERNAL\GLM-0.9.4.0\GLM\CORE\TYPE_VEC4.HPP
C:\USERS\DREW\DOCUMENTS\DSAII\OPENGL ABSOLUTE\OPENGL-TUTORIAL_V0014_33\EXTERNAL\GLM-0.9.4.0\GLM\CORE\TYPE_VEC4.INL
C:\USERS\DREW\DOCUMENTS\DSAII\OPENGL ABSOLUTE\OPENGL-TUTORIAL_V0014_33\EXTERNAL\GLM-0.9.4.0\GLM\CORE\TYPE_MAT2X2.HPP
C:\USERS\DREW\DOCUMENTS\DSAII\OPENGL ABSOLUTE\OPENGL-TUTORIAL_V0014_33\EXTERNAL\GLM-0.9.4.0\GLM\CORE\TYPE_MAT.HPP
C:\USERS\DREW\DOCUMENTS\DSAII\OPENGL ABSOLUTE\OPENGL-TUTORIAL_V0014_33\EXTERNAL\GLM-0.9.4.0\GLM\CORE\TYPE_MAT2X2.INL
C:\USERS\DREW\DOCUMENTS\DSAII\OPENGL ABSOLUTE\OPENGL-TUTORIAL_V0014_33\EXTERNAL\GLM-0.9.4.0\GLM\CORE\TYPE_MAT2X3.HPP
C:\USERS\DREW\DOCUMENTS\DSAII\OPENGL ABSOLUTE\OPENGL-TUTORIAL_V0014_33\EXTERNAL\GLM-0.9.4.0\GLM\CORE\TYPE_MAT2X3.INL
C:\USERS\DREW\DOCUMENTS\DSAII\OPENGL ABSOLUTE\OPENGL-TUTORIAL_V0014_33\EXTERNAL\GLM-0.9.4.0\GLM\CORE\TYPE_MAT2X4.HPP
C:\USERS\DREW\DOCUMENTS\DSAII\OPENGL ABSOLUTE\OPENGL-TUTORIAL_V0014_33\EXTERNAL\GLM-0.9.4.0\GLM\CORE\TYPE_MAT2X4.INL
C:\USERS\DREW\DOCUMENTS\DSAII\OPENGL ABSOLUTE\OPENGL-TUTORIAL_V0014_33\EXTERNAL\GLM-0.9.4.0\GLM\CORE\TYPE_MAT3X2.HPP
C:\USERS\DREW\DOCUMENTS\DSAII\OPENGL ABSOLUTE\OPENGL-TUTORIAL_V0014_33\EXTERNAL\GLM-0.9.4.0\GLM\CORE\TYPE_MAT3X2.INL
C:\USERS\DREW\DOCUMENTS\DSAII\OPENGL ABSOLUTE\OPENGL-TUTORIAL_V0014_33\EXTERNAL\GLM-0.9.4.0\GLM\CORE\TYPE_MAT3X3.HPP
C:\USERS\DREW\DOCUMENTS\DSAII\OPENGL ABSOLUTE\OPENGL-TUTORIAL_V0014_33\EXTERNAL\GLM-0.9.4.0\GLM\CORE\TYPE_MAT3X3.INL
C:\USERS\DREW\DOCUMENTS\DSAII\OPENGL ABSOLUTE\OPENGL-TUTORIAL_V0014_33\EXTERNAL\GLM-0.9.4.0\GLM\CORE\TYPE_MAT3X4.HPP
C:\USERS\DREW\DOCUMENTS\DSAII\OPENGL ABSOLUTE\OPENGL-TUTORIAL_V0014_33\EXTERNAL\GLM-0.9.4.0\GLM\CORE\TYPE_MAT3X4.INL
C:\USERS\DREW\DOCUMENTS\DSAII\OPENGL ABSOLUTE\OPENGL-TUTORIAL_V0014_33\EXTERNAL\GLM-0.9.4.0\GLM\CORE\TYPE_MAT4X2.HPP
C:\USERS\DREW\DOCUMENTS\DSAII\OPENGL ABSOLUTE\OPENGL-TUTORIAL_V0014_33\EXTERNAL\GLM-0.9.4.0\GLM\CORE\TYPE_MAT4X2.INL
C:\USERS\DREW\DOCUMENTS\DSAII\OPENGL ABSOLUTE\OPENGL-TUTORIAL_V0014_33\EXTERNAL\GLM-0.9.4.0\GLM\CORE\TYPE_MAT4X3.HPP
C:\USERS\DREW\DOCUMENTS\DSAII\OPENGL ABSOLUTE\OPENGL-TUTORIAL_V0014_33\EXTERNAL\GLM-0.9.4.0\GLM\CORE\TYPE_MAT4X3.INL
C:\USERS\DREW\DOCUMENTS\DSAII\OPENGL ABSOLUTE\OPENGL-TUTORIAL_V0014_33\EXTERNAL\GLM-0.9.4.0\GLM\CORE\TYPE_MAT4X4.HPP
C:\USERS\DREW\DOCUMENTS\DSAII\OPENGL ABSOLUTE\OPENGL-TUTORIAL_V0014_33\EXTERNAL\GLM-0.9.4.0\GLM\CORE\TYPE_MAT4X4.INL
C:\USERS\DREW\DOCUMENTS\DSAII\OPENGL ABSOLUTE\OPENGL-TUTORIAL_V0014_33\EXTERNAL\GLM-0.9.4.0\GLM\CORE\FUNC_TRIGONOMETRIC.HPP
C:\USERS\DREW\DOCUMENTS\DSAII\OPENGL ABSOLUTE\OPENGL-TUTORIAL_V0014_33\EXTERNAL\GLM-0.9.4.0\GLM\CORE\FUNC_TRIGONOMETRIC.INL
C:\USERS\DREW\DOCUMENTS\DSAII\OPENGL ABSOLUTE\OPENGL-TUTORIAL_V0014_33\EXTERNAL\GLM-0.9.4.0\GLM\CORE\FUNC_EXPONENTIAL.HPP
C:\USERS\DREW\DOCUMENTS\DSAII\OPENGL ABSOLUTE\OPENGL-TUTORIAL_V0014_33\EXTERNAL\GLM-0.9.4.0\GLM\CORE\FUNC_EXPONENTIAL.INL
C:\USERS\DREW\DOCUMENTS\DSAII\OPENGL ABSOLUTE\OPENGL-TUTORIAL_V0014_33\EXTERNAL\GLM-0.9.4.0\GLM\CORE\FUNC_COMMON.HPP
C:\USERS\DREW\DOCUMENTS\DSAII\OPENGL ABSOLUTE\OPENGL-TUTORIAL_V0014_33\EXTERNAL\GLM-0.9.4.0\GLM\CORE\FUNC_COMMON.INL
C:\USERS\DREW\DOCUMENTS\DSAII\OPENGL ABSOLUTE\OPENGL-TUTORIAL_V0014_33\EXTERNAL\GLM-0.9.4.0\GLM\CORE\FUNC_PACKING.HPP
C:\USERS\DREW\DOCUMENTS\DSAII\OPENGL ABSOLUTE\OPENGL-TUTORIAL_V0014_33\EXTERNAL\GLM-0.9.4.0\GLM\CORE\FUNC_PACKING.INL
C:\USERS\DREW\DOCUMENTS\DSAII\OPENGL ABSOLUTE\OPENGL-TUTORIAL_V0014_33\EXTERNAL\GLM-0.9.4.0\GLM\CORE\FUNC_GEOMETRIC.HPP
C:\USERS\DREW\DOCUMENTS\DSAII\OPENGL ABSOLUTE\OPENGL-TUTORIAL_V0014_33\EXTERNAL\GLM-0.9.4.0\GLM\CORE\FUNC_GEOMETRIC.INL
C:\USERS\DREW\DOCUMENTS\DSAII\OPENGL ABSOLUTE\OPENGL-TUTORIAL_V0014_33\EXTERNAL\GLM-0.9.4.0\GLM\CORE\FUNC_MATRIX.HPP
C:\USERS\DREW\DOCUMENTS\DSAII\OPENGL ABSOLUTE\OPENGL-TUTORIAL_V0014_33\EXTERNAL\GLM-0.9.4.0\GLM\CORE\FUNC_MATRIX.INL
C:\USERS\DREW\DOCUMENTS\DSAII\OPENGL ABSOLUTE\OPENGL-TUTORIAL_V0014_33\EXTERNAL\GLM-0.9.4.0\GLM\CORE\FUNC_VECTOR_RELATIONAL.HPP
C:\USERS\DREW\DOCUMENTS\DSAII\OPENGL ABSOLUTE\OPENGL-TUTORIAL_V0014_33\EXTERNAL\GLM-0.9.4.0\GLM\CORE\FUNC_VECTOR_RELATIONAL.INL
C:\USERS\DREW\DOCUMENTS\DSAII\OPENGL ABSOLUTE\OPENGL-TUTORIAL_V0014_33\EXTERNAL\GLM-0.9.4.0\GLM\CORE\FUNC_INTEGER.HPP
C:\USERS\DREW\DOCUMENTS\DSAII\OPENGL ABSOLUTE\OPENGL-TUTORIAL_V0014_33\EXTERNAL\GLM-0.9.4.0\GLM\CORE\FUNC_INTEGER.INL
C:\PROGRAM FILES (X86)\MICROSOFT VISUAL STUDIO 11.0\VC\INCLUDE\INTRIN.H
C:\PROGRAM FILES (X86)\MICROSOFT VISUAL STUDIO 11.0\VC\INCLUDE\SETJMP.H
C:\PROGRAM FILES (X86)\MICROSOFT VISUAL STUDIO 11.0\VC\INCLUDE\AMMINTRIN.H
C:\USERS\DREW\DOCUMENTS\DSAII\OPENGL ABSOLUTE\OPENGL-TUTORIAL_V0014_33\EXTERNAL\GLM-0.9.4.0\GLM\CORE\FUNC_NOISE.HPP
C:\USERS\DREW\DOCUMENTS\DSAII\OPENGL ABSOLUTE\OPENGL-TUTORIAL_V0014_33\EXTERNAL\GLM-0.9.4.0\GLM\CORE\FUNC_NOISE.INL
C:\USERS\DREW\DOCUMENTS\DSAII\OPENGL ABSOLUTE\OPENGL-TUTORIAL_V0014_33\EXTERNAL\GLM-0.9.4.0\GLM\GTC\MATRIX_TRANSFORM.HPP
C:\USERS\DREW\DOCUMENTS\DSAII\OPENGL ABSOLUTE\OPENGL-TUTORIAL_V0014_33\EXTERNAL\GLM-0.9.4.0\GLM\GTC\MATRIX_TRANSFORM.INL
C:\USERS\DREW\DOCUMENTS\DSAII\OPENGL ABSOLUTE\OPENGL-TUTORIAL_V0014_33\COMMON\SHADER.HPP
C:\USERS\DREW\DOCUMENTS\DSAII\OPENGL ABSOLUTE\OPENGL-TUTORIAL_V0014_33\COMMON\TEXTURE.HPP
C:\USERS\DREW\DOCUMENTS\DSAII\OPENGL ABSOLUTE\OPENGL-TUTORIAL_V0014_33\COMMON\CONTROLS.HPP
^C:\USERS\DREW\DOCUMENTS\DSAII\OPENGL ABSOLUTE\OPENGL-TUTORIAL_V0014_33\COMMON\CONTROLS.CPP
C:\USERS\DREW\DOCUMENTS\DSAII\OPENGL ABSOLUTE\OPENGL-TUTORIAL_V0014_33\EXTERNAL\GLFW-3.0.3\INCLUDE\GLFW\GLFW3.H
C:\PROGRAM FILES (X86)\MICROSOFT VISUAL STUDIO 11.0\VC\INCLUDE\STDDEF.H
C:\PROGRAM FILES (X86)\MICROSOFT VISUAL STUDIO 11.0\VC\INCLUDE\CRTDEFS.H
C:\PROGRAM FILES (X86)\MICROSOFT VISUAL STUDIO 11.0\VC\INCLUDE\SAL.H
C:\PROGRAM FILES (X86)\MICROSOFT VISUAL STUDIO 11.0\VC\INCLUDE\CONCURRENCYSAL.H
C:\PROGRAM FILES (X86)\MICROSOFT VISUAL STUDIO 11.0\VC\INCLUDE\VADEFS.H
C:\PROGRAM FILES (X86)\WINDOWS KITS\8.0\INCLUDE\UM\GL\GL.H
C:\PROGRAM FILES (X86)\WINDOWS KITS\8.0\INCLUDE\SHARED\WINAPIFAMILY.H
C:\USERS\DREW\DOCUMENTS\DSAII\OPENGL ABSOLUTE\OPENGL-TUTORIAL_V0014_33\EXTERNAL\GLM-0.9.4.0\GLM\GLM.HPP
C:\USERS\DREW\DOCUMENTS\DSAII\OPENGL ABSOLUTE\OPENGL-TUTORIAL_V0014_33\EXTERNAL\GLM-0.9.4.0\GLM\CORE\_FIXES.HPP
C:\PROGRAM FILES (X86)\MICROSOFT VISUAL STUDIO 11.0\VC\INCLUDE\CMATH
C:\PROGRAM FILES (X86)\MICROSOFT VISUAL STUDIO 11.0\VC\INCLUDE\YVALS.H
C:\PROGRAM FILES (X86)\MICROSOFT VISUAL STUDIO 11.0\VC\INCLUDE\XKEYCHECK.H
C:\PROGRAM FILES (X86)\MICROSOFT VISUAL STUDIO 11.0\VC\INCLUDE\USE_ANSI.H
C:\PROGRAM FILES (X86)\MICROSOFT VISUAL STUDIO 11.0\VC\INCLUDE\MATH.H
C:\PROGRAM FILES (X86)\MICROSOFT VISUAL STUDIO 11.0\VC\INCLUDE\XTGMATH.H
C:\PROGRAM FILES (X86)\MICROSOFT VISUAL STUDIO 11.0\VC\INCLUDE\XTR1COMMON
C:\PROGRAM FILES (X86)\MICROSOFT VISUAL STUDIO 11.0\VC\INCLUDE\CLIMITS
C:\PROGRAM FILES (X86)\MICROSOFT VISUAL STUDIO 11.0\VC\INCLUDE\LIMITS.H
C:\PROGRAM FILES (X86)\MICROSOFT VISUAL STUDIO 11.0\VC\INCLUDE\CFLOAT
C:\PROGRAM FILES (X86)\MICROSOFT VISUAL STUDIO 11.0\VC\INCLUDE\FLOAT.H
C:\PROGRAM FILES (X86)\MICROSOFT VISUAL STUDIO 11.0\VC\INCLUDE\CRTWRN.H
C:\PROGRAM FILES (X86)\MICROSOFT VISUAL STUDIO 11.0\VC\INCLUDE\LIMITS
C:\PROGRAM FILES (X86)\MICROSOFT VISUAL STUDIO 11.0\VC\INCLUDE\YMATH.H
C:\PROGRAM FILES (X86)\MICROSOFT VISUAL STUDIO 11.0\VC\INCLUDE\CWCHAR
C:\PROGRAM FILES (X86)\MICROSOFT VISUAL STUDIO 11.0\VC\INCLUDE\WCHAR.H
C:\PROGRAM FILES (X86)\MICROSOFT VISUAL STUDIO 11.0\VC\INCLUDE\SWPRINTF.INL
C:\PROGRAM FILES (X86)\MICROSOFT VISUAL STUDIO 11.0\VC\INCLUDE\WTIME.INL
C:\PROGRAM FILES (X86)\MICROSOFT VISUAL STUDIO 11.0\VC\INCLUDE\XSTDDEF
C:\PROGRAM FILES (X86)\MICROSOFT VISUAL STUDIO 11.0\VC\INCLUDE\STDLIB.H
C:\PROGRAM FILES (X86)\MICROSOFT VISUAL STUDIO 11.0\VC\INCLUDE\CSTDDEF
C:\PROGRAM FILES (X86)\MICROSOFT VISUAL STUDIO 11.0\VC\INCLUDE\CSTDIO
C:\PROGRAM FILES (X86)\MICROSOFT VISUAL STUDIO 11.0\VC\INCLUDE\STDIO.H
C:\USERS\DREW\DOCUMENTS\DSAII\OPENGL ABSOLUTE\OPENGL-TUTORIAL_V0014_33\EXTERNAL\GLM-0.9.4.0\GLM\CORE\SETUP.HPP
C:\PROGRAM FILES (X86)\MICROSOFT VISUAL STUDIO 11.0\VC\INCLUDE\IMMINTRIN.H
C:\PROGRAM FILES (X86)\MICROSOFT VISUAL STUDIO 11.0\VC\INCLUDE\WMMINTRIN.H
C:\PROGRAM FILES (X86)\MICROSOFT VISUAL STUDIO 11.0\VC\INCLUDE\NMMINTRIN.H
C:\PROGRAM FILES (X86)\MICROSOFT VISUAL STUDIO 11.0\VC\INCLUDE\SMMINTRIN.H
C:\PROGRAM FILES (X86)\MICROSOFT VISUAL STUDIO 11.0\VC\INCLUDE\TMMINTRIN.H
C:\PROGRAM FILES (X86)\MICROSOFT VISUAL STUDIO 11.0\VC\INCLUDE\PMMINTRIN.H
C:\PROGRAM FILES (X86)\MICROSOFT VISUAL STUDIO 11.0\VC\INCLUDE\EMMINTRIN.H
C:\PROGRAM FILES (X86)\MICROSOFT VISUAL STUDIO 11.0\VC\INCLUDE\XMMINTRIN.H
C:\PROGRAM FILES (X86)\MICROSOFT VISUAL STUDIO 11.0\VC\INCLUDE\MMINTRIN.H
C:\PROGRAM FILES (X86)\MICROSOFT VISUAL STUDIO 11.0\VC\INCLUDE\MALLOC.H
C:\USERS\DREW\DOCUMENTS\DSAII\OPENGL ABSOLUTE\OPENGL-TUTORIAL_V0014_33\EXTERNAL\GLM-0.9.4.0\GLM\CORE\_DETAIL.HPP
C:\PROGRAM FILES (X86)\MICROSOFT VISUAL STUDIO 11.0\VC\INCLUDE\CASSERT
C:\PROGRAM FILES (X86)\MICROSOFT VISUAL STUDIO 11.0\VC\INCLUDE\ASSERT.H
C:\USERS\DREW\DOCUMENTS\DSAII\OPENGL ABSOLUTE\OPENGL-TUTORIAL_V0014_33\EXTERNAL\GLM-0.9.4.0\GLM\CORE\_VECTORIZE.HPP
C:\USERS\DREW\DOCUMENTS\DSAII\OPENGL ABSOLUTE\OPENGL-TUTORIAL_V0014_33\EXTERNAL\GLM-0.9.4.0\GLM\CORE\TYPE.HPP
C:\USERS\DREW\DOCUMENTS\DSAII\OPENGL ABSOLUTE\OPENGL-TUTORIAL_V0014_33\EXTERNAL\GLM-0.9.4.0\GLM\CORE\TYPE_HALF.HPP
C:\PROGRAM FILES (X86)\MICROSOFT VISUAL STUDIO 11.0\VC\INCLUDE\CSTDLIB
C:\USERS\DREW\DOCUMENTS\DSAII\OPENGL ABSOLUTE\OPENGL-TUTORIAL_V0014_33\EXTERNAL\GLM-0.9.4.0\GLM\CORE\TYPE_HALF.INL
C:\USERS\DREW\DOCUMENTS\DSAII\OPENGL ABSOLUTE\OPENGL-TUTORIAL_V0014_33\EXTERNAL\GLM-0.9.4.0\GLM\CORE\TYPE_FLOAT.HPP
C:\USERS\DREW\DOCUMENTS\DSAII\OPENGL ABSOLUTE\OPENGL-TUTORIAL_V0014_33\EXTERNAL\GLM-0.9.4.0\GLM\CORE\TYPE_INT.HPP
C:\USERS\DREW\DOCUMENTS\DSAII\OPENGL ABSOLUTE\OPENGL-TUTORIAL_V0014_33\EXTERNAL\GLM-0.9.4.0\GLM\CORE\TYPE_GENTYPE.HPP
C:\USERS\DREW\DOCUMENTS\DSAII\OPENGL ABSOLUTE\OPENGL-TUTORIAL_V0014_33\EXTERNAL\GLM-0.9.4.0\GLM\CORE\TYPE_SIZE.HPP
C:\USERS\DREW\DOCUMENTS\DSAII\OPENGL ABSOLUTE\OPENGL-TUTORIAL_V0014_33\EXTERNAL\GLM-0.9.4.0\GLM\CORE\TYPE_VEC1.HPP
C:\USERS\DREW\DOCUMENTS\DSAII\OPENGL ABSOLUTE\OPENGL-TUTORIAL_V0014_33\EXTERNAL\GLM-0.9.4.0\GLM\CORE\TYPE_VEC.HPP
C:\USERS\DREW\DOCUMENTS\DSAII\OPENGL ABSOLUTE\OPENGL-TUTORIAL_V0014_33\EXTERNAL\GLM-0.9.4.0\GLM\CORE\_SWIZZLE.HPP
C:\USERS\DREW\DOCUMENTS\DSAII\OPENGL ABSOLUTE\OPENGL-TUTORIAL_V0014_33\EXTERNAL\GLM-0.9.4.0\GLM\CORE\_SWIZZLE_FUNC.HPP
C:\USERS\DREW\DOCUMENTS\DSAII\OPENGL ABSOLUTE\OPENGL-TUTORIAL_V0014_33\EXTERNAL\GLM-0.9.4.0\GLM\CORE\TYPE_VEC1.INL
C:\USERS\DREW\DOCUMENTS\DSAII\OPENGL ABSOLUTE\OPENGL-TUTORIAL_V0014_33\EXTERNAL\GLM-0.9.4.0\GLM\CORE\TYPE_VEC2.HPP
C:\USERS\DREW\DOCUMENTS\DSAII\OPENGL ABSOLUTE\OPENGL-TUTORIAL_V0014_33\EXTERNAL\GLM-0.9.4.0\GLM\CORE\TYPE_VEC2.INL
C:\USERS\DREW\DOCUMENTS\DSAII\OPENGL ABSOLUTE\OPENGL-TUTORIAL_V0014_33\EXTERNAL\GLM-0.9.4.0\GLM\CORE\TYPE_VEC3.HPP
C:\USERS\DREW\DOCUMENTS\DSAII\OPENGL ABSOLUTE\OPENGL-TUTORIAL_V0014_33\EXTERNAL\GLM-0.9.4.0\GLM\CORE\TYPE_VEC3.INL
C:\USERS\DREW\DOCUMENTS\DSAII\OPENGL ABSOLUTE\OPENGL-TUTORIAL_V0014_33\EXTERNAL\GLM-0.9.4.0\GLM\CORE\TYPE_VEC4.HPP
C:\USERS\DREW\DOCUMENTS\DSAII\OPENGL ABSOLUTE\OPENGL-TUTORIAL_V0014_33\EXTERNAL\GLM-0.9.4.0\GLM\CORE\TYPE_VEC4.INL
C:\USERS\DREW\DOCUMENTS\DSAII\OPENGL ABSOLUTE\OPENGL-TUTORIAL_V0014_33\EXTERNAL\GLM-0.9.4.0\GLM\CORE\TYPE_MAT2X2.HPP
C:\USERS\DREW\DOCUMENTS\DSAII\OPENGL ABSOLUTE\OPENGL-TUTORIAL_V0014_33\EXTERNAL\GLM-0.9.4.0\GLM\CORE\TYPE_MAT.HPP
C:\USERS\DREW\DOCUMENTS\DSAII\OPENGL ABSOLUTE\OPENGL-TUTORIAL_V0014_33\EXTERNAL\GLM-0.9.4.0\GLM\CORE\TYPE_MAT2X2.INL
C:\USERS\DREW\DOCUMENTS\DSAII\OPENGL ABSOLUTE\OPENGL-TUTORIAL_V0014_33\EXTERNAL\GLM-0.9.4.0\GLM\CORE\TYPE_MAT2X3.HPP
C:\USERS\DREW\DOCUMENTS\DSAII\OPENGL ABSOLUTE\OPENGL-TUTORIAL_V0014_33\EXTERNAL\GLM-0.9.4.0\GLM\CORE\TYPE_MAT2X3.INL
C:\USERS\DREW\DOCUMENTS\DSAII\OPENGL ABSOLUTE\OPENGL-TUTORIAL_V0014_33\EXTERNAL\GLM-0.9.4.0\GLM\CORE\TYPE_MAT2X4.HPP
C:\USERS\DREW\DOCUMENTS\DSAII\OPENGL ABSOLUTE\OPENGL-TUTORIAL_V0014_33\EXTERNAL\GLM-0.9.4.0\GLM\CORE\TYPE_MAT2X4.INL
C:\USERS\DREW\DOCUMENTS\DSAII\OPENGL ABSOLUTE\OPENGL-TUTORIAL_V0014_33\EXTERNAL\GLM-0.9.4.0\GLM\CORE\TYPE_MAT3X2.HPP
C:\USERS\DREW\DOCUMENTS\DSAII\OPENGL ABSOLUTE\OPENGL-TUTORIAL_V0014_33\EXTERNAL\GLM-0.9.4.0\GLM\CORE\TYPE_MAT3X2.INL
C:\USERS\DREW\DOCUMENTS\DSAII\OPENGL ABSOLUTE\OPENGL-TUTORIAL_V0014_33\EXTERNAL\GLM-0.9.4.0\GLM\CORE\TYPE_MAT3X3.HPP
C:\USERS\DREW\DOCUMENTS\DSAII\OPENGL ABSOLUTE\OPENGL-TUTORIAL_V0014_33\EXTERNAL\GLM-0.9.4.0\GLM\CORE\TYPE_MAT3X3.INL
C:\USERS\DREW\DOCUMENTS\DSAII\OPENGL ABSOLUTE\OPENGL-TUTORIAL_V0014_33\EXTERNAL\GLM-0.9.4.0\GLM\CORE\TYPE_MAT3X4.HPP
C:\USERS\DREW\DOCUMENTS\DSAII\OPENGL ABSOLUTE\OPENGL-TUTORIAL_V0014_33\EXTERNAL\GLM-0.9.4.0\GLM\CORE\TYPE_MAT3X4.INL
C:\USERS\DREW\DOCUMENTS\DSAII\OPENGL ABSOLUTE\OPENGL-TUTORIAL_V0014_33\EXTERNAL\GLM-0.9.4.0\GLM\CORE\TYPE_MAT4X2.HPP
C:\USERS\DREW\DOCUMENTS\DSAII\OPENGL ABSOLUTE\OPENGL-TUTORIAL_V0014_33\EXTERNAL\GLM-0.9.4.0\GLM\CORE\TYPE_MAT4X2.INL
C:\USERS\DREW\DOCUMENTS\DSAII\OPENGL ABSOLUTE\OPENGL-TUTORIAL_V0014_33\EXTERNAL\GLM-0.9.4.0\GLM\CORE\TYPE_MAT4X3.HPP
C:\USERS\DREW\DOCUMENTS\DSAII\OPENGL ABSOLUTE\OPENGL-TUTORIAL_V0014_33\EXTERNAL\GLM-0.9.4.0\GLM\CORE\TYPE_MAT4X3.INL
C:\USERS\DREW\DOCUMENTS\DSAII\OPENGL ABSOLUTE\OPENGL-TUTORIAL_V0014_33\EXTERNAL\GLM-0.9.4.0\GLM\CORE\TYPE_MAT4X4.HPP
C:\USERS\DREW\DOCUMENTS\DSAII\OPENGL ABSOLUTE\OPENGL-TUTORIAL_V0014_33\EXTERNAL\GLM-0.9.4.0\GLM\CORE\TYPE_MAT4X4.INL
C:\USERS\DREW\DOCUMENTS\DSAII\OPENGL ABSOLUTE\OPENGL-TUTORIAL_V0014_33\EXTERNAL\GLM-0.9.4.0\GLM\CORE\FUNC_TRIGONOMETRIC.HPP
C:\USERS\DREW\DOCUMENTS\DSAII\OPENGL ABSOLUTE\OPENGL-TUTORIAL_V0014_33\EXTERNAL\GLM-0.9.4.0\GLM\CORE\FUNC_TRIGONOMETRIC.INL
C:\USERS\DREW\DOCUMENTS\DSAII\OPENGL ABSOLUTE\OPENGL-TUTORIAL_V0014_33\EXTERNAL\GLM-0.9.4.0\GLM\CORE\FUNC_EXPONENTIAL.HPP
C:\USERS\DREW\DOCUMENTS\DSAII\OPENGL ABSOLUTE\OPENGL-TUTORIAL_V0014_33\EXTERNAL\GLM-0.9.4.0\GLM\CORE\FUNC_EXPONENTIAL.INL
C:\USERS\DREW\DOCUMENTS\DSAII\OPENGL ABSOLUTE\OPENGL-TUTORIAL_V0014_33\EXTERNAL\GLM-0.9.4.0\GLM\CORE\FUNC_COMMON.HPP
C:\USERS\DREW\DOCUMENTS\DSAII\OPENGL ABSOLUTE\OPENGL-TUTORIAL_V0014_33\EXTERNAL\GLM-0.9.4.0\GLM\CORE\FUNC_COMMON.INL
C:\USERS\DREW\DOCUMENTS\DSAII\OPENGL ABSOLUTE\OPENGL-TUTORIAL_V0014_33\EXTERNAL\GLM-0.9.4.0\GLM\CORE\FUNC_PACKING.HPP
C:\USERS\DREW\DOCUMENTS\DSAII\OPENGL ABSOLUTE\OPENGL-TUTORIAL_V0014_33\EXTERNAL\GLM-0.9.4.0\GLM\CORE\FUNC_PACKING.INL
C:\USERS\DREW\DOCUMENTS\DSAII\OPENGL ABSOLUTE\OPENGL-TUTORIAL_V0014_33\EXTERNAL\GLM-0.9.4.0\GLM\CORE\FUNC_GEOMETRIC.HPP
C:\USERS\DREW\DOCUMENTS\DSAII\OPENGL ABSOLUTE\OPENGL-TUTORIAL_V0014_33\EXTERNAL\GLM-0.9.4.0\GLM\CORE\FUNC_GEOMETRIC.INL
C:\USERS\DREW\DOCUMENTS\DSAII\OPENGL ABSOLUTE\OPENGL-TUTORIAL_V0014_33\EXTERNAL\GLM-0.9.4.0\GLM\CORE\FUNC_MATRIX.HPP
C:\USERS\DREW\DOCUMENTS\DSAII\OPENGL ABSOLUTE\OPENGL-TUTORIAL_V0014_33\EXTERNAL\GLM-0.9.4.0\GLM\CORE\FUNC_MATRIX.INL
C:\USERS\DREW\DOCUMENTS\DSAII\OPENGL ABSOLUTE\OPENGL-TUTORIAL_V0014_33\EXTERNAL\GLM-0.9.4.0\GLM\CORE\FUNC_VECTOR_RELATIONAL.HPP
C:\USERS\DREW\DOCUMENTS\DSAII\OPENGL ABSOLUTE\OPENGL-TUTORIAL_V0014_33\EXTERNAL\GLM-0.9.4.0\GLM\CORE\FUNC_VECTOR_RELATIONAL.INL
C:\USERS\DREW\DOCUMENTS\DSAII\OPENGL ABSOLUTE\OPENGL-TUTORIAL_V0014_33\EXTERNAL\GLM-0.9.4.0\GLM\CORE\FUNC_INTEGER.HPP
C:\USERS\DREW\DOCUMENTS\DSAII\OPENGL ABSOLUTE\OPENGL-TUTORIAL_V0014_33\EXTERNAL\GLM-0.9.4.0\GLM\CORE\FUNC_INTEGER.INL
C:\PROGRAM FILES (X86)\MICROSOFT VISUAL STUDIO 11.0\VC\INCLUDE\INTRIN.H
C:\PROGRAM FILES (X86)\MICROSOFT VISUAL STUDIO 11.0\VC\INCLUDE\SETJMP.H
C:\PROGRAM FILES (X86)\MICROSOFT VISUAL STUDIO 11.0\VC\INCLUDE\AMMINTRIN.H
C:\USERS\DREW\DOCUMENTS\DSAII\OPENGL ABSOLUTE\OPENGL-TUTORIAL_V0014_33\EXTERNAL\GLM-0.9.4.0\GLM\CORE\FUNC_NOISE.HPP
C:\USERS\DREW\DOCUMENTS\DSAII\OPENGL ABSOLUTE\OPENGL-TUTORIAL_V0014_33\EXTERNAL\GLM-0.9.4.0\GLM\CORE\FUNC_NOISE.INL
C:\USERS\DREW\DOCUMENTS\DSAII\OPENGL ABSOLUTE\OPENGL-TUTORIAL_V0014_33\EXTERNAL\GLM-0.9.4.0\GLM\GTC\MATRIX_TRANSFORM.HPP
C:\USERS\DREW\DOCUMENTS\DSAII\OPENGL ABSOLUTE\OPENGL-TUTORIAL_V0014_33\EXTERNAL\GLM-0.9.4.0\GLM\GTC\MATRIX_TRANSFORM.INL
C:\USERS\DREW\DOCUMENTS\DSAII\OPENGL ABSOLUTE\OPENGL-TUTORIAL_V0014_33\COMMON\CONTROLS.HPP
^C:\USERS\DREW\DOCUMENTS\DSAII\OPENGL ABSOLUTE\OPENGL-TUTORIAL_V0014_33\COMMON\TEXTURE.CPP
C:\PROGRAM FILES (X86)\MICROSOFT VISUAL STUDIO 11.0\VC\INCLUDE\STDIO.H
C:\PROGRAM FILES (X86)\MICROSOFT VISUAL STUDIO 11.0\VC\INCLUDE\CRTDEFS.H
C:\PROGRAM FILES (X86)\MICROSOFT VISUAL STUDIO 11.0\VC\INCLUDE\SAL.H
C:\PROGRAM FILES (X86)\MICROSOFT VISUAL STUDIO 11.0\VC\INCLUDE\CONCURRENCYSAL.H
C:\PROGRAM FILES (X86)\MICROSOFT VISUAL STUDIO 11.0\VC\INCLUDE\VADEFS.H
C:\PROGRAM FILES (X86)\MICROSOFT VISUAL STUDIO 11.0\VC\INCLUDE\SWPRINTF.INL
C:\PROGRAM FILES (X86)\MICROSOFT VISUAL STUDIO 11.0\VC\INCLUDE\STDLIB.H
C:\PROGRAM FILES (X86)\MICROSOFT VISUAL STUDIO 11.0\VC\INCLUDE\LIMITS.H
C:\PROGRAM FILES (X86)\MICROSOFT VISUAL STUDIO 11.0\VC\INCLUDE\STRING.H
C:\USERS\DREW\DOCUMENTS\DSAII\OPENGL ABSOLUTE\OPENGL-TUTORIAL_V0014_33\EXTERNAL\GLEW-1.9.0\INCLUDE\GL\GLEW.H
C:\PROGRAM FILES (X86)\WINDOWS KITS\8.0\INCLUDE\UM\GL\GLU.H
C:\PROGRAM FILES (X86)\WINDOWS KITS\8.0\INCLUDE\SHARED\WINAPIFAMILY.H
C:\PROGRAM FILES (X86)\WINDOWS KITS\8.0\INCLUDE\UM\GL\GL.H
C:\USERS\DREW\DOCUMENTS\DSAII\OPENGL ABSOLUTE\OPENGL-TUTORIAL_V0014_33\EXTERNAL\GLFW-3.0.3\INCLUDE\GLFW\GLFW3.H
C:\PROGRAM FILES (X86)\MICROSOFT VISUAL STUDIO 11.0\VC\INCLUDE\STDDEF.H
