^C:\USERS\DREW\DOCUMENTS\DSAII\OPENGL ABSOLUTE\OPENGL-TUTORIAL_V0014_33\BUILD\TUTORIAL01_FIRST_WINDOW.DIR\DEBUG\TUTORIAL01.OBJ
C:\USERS\DREW\DOCUMENTS\DSAII\OPENGL ABSOLUTE\OPENGL-TUTORIAL_V0014_33\BUILD\DEBUG\TUTORIAL01_FIRST_WINDOW.ILK
C:\USERS\DREW\DOCUMENTS\DSAII\OPENGL ABSOLUTE\OPENGL-TUTORIAL_V0014_33\BUILD\DEBUG\TUTORIAL01_FIRST_WINDOW.EXE
C:\USERS\DREW\DOCUMENTS\DSAII\OPENGL ABSOLUTE\OPENGL-TUTORIAL_V0014_33\BUILD\DEBUG\TUTORIAL01_FIRST_WINDOW.PDB
