^C:\USERS\DREW\DOCUMENTS\DSAII\OPENGL ABSOLUTE\OPENGL-TUTORIAL_V0014_33\BUILD\MISC05_PICKING_BULLETPHYSICS.DIR\DEBUG\CONTROLS.OBJ|C:\USERS\DREW\DOCUMENTS\DSAII\OPENGL ABSOLUTE\OPENGL-TUTORIAL_V0014_33\BUILD\MISC05_PICKING_BULLETPHYSICS.DIR\DEBUG\MISC05_PICKING_BULLETPHYSICS.OBJ|C:\USERS\DREW\DOCUMENTS\DSAII\OPENGL ABSOLUTE\OPENGL-TUTORIAL_V0014_33\BUILD\MISC05_PICKING_BULLETPHYSICS.DIR\DEBUG\OBJLOADER.OBJ|C:\USERS\DREW\DOCUMENTS\DSAII\OPENGL ABSOLUTE\OPENGL-TUTORIAL_V0014_33\BUILD\MISC05_PICKING_BULLETPHYSICS.DIR\DEBUG\SHADER.OBJ|C:\USERS\DREW\DOCUMENTS\DSAII\OPENGL ABSOLUTE\OPENGL-TUTORIAL_V0014_33\BUILD\MISC05_PICKING_BULLETPHYSICS.DIR\DEBUG\TEXTURE.OBJ|C:\USERS\DREW\DOCUMENTS\DSAII\OPENGL ABSOLUTE\OPENGL-TUTORIAL_V0014_33\BUILD\MISC05_PICKING_BULLETPHYSICS.DIR\DEBUG\VBOINDEXER.OBJ
C:\USERS\DREW\DOCUMENTS\DSAII\OPENGL ABSOLUTE\OPENGL-TUTORIAL_V0014_33\BUILD\DEBUG\MISC05_PICKING_BULLETPHYSICS.ILK
C:\USERS\DREW\DOCUMENTS\DSAII\OPENGL ABSOLUTE\OPENGL-TUTORIAL_V0014_33\BUILD\DEBUG\MISC05_PICKING_BULLETPHYSICS.EXE
C:\USERS\DREW\DOCUMENTS\DSAII\OPENGL ABSOLUTE\OPENGL-TUTORIAL_V0014_33\BUILD\DEBUG\MISC05_PICKING_BULLETPHYSICS.PDB
