^C:\USERS\DREW\DOCUMENTS\DSAII\OPENGL ABSOLUTE\OPENGL-TUTORIAL_V0014_33\TUTORIAL18_BILLBOARDS_AND_PARTICLES\TUTORIAL18_BILLBOARDS.CPP
/c /I"C:\Users\Drew\Documents\DSAII\OPENGL ABSOLUTE\OpenGL-tutorial_v0014_33\external\AntTweakBar-1.16\include" /I"C:\Users\Drew\Documents\DSAII\OPENGL ABSOLUTE\OpenGL-tutorial_v0014_33\external\glfw-3.0.3\include\GLFW" /I"C:\Users\Drew\Documents\DSAII\OPENGL ABSOLUTE\OpenGL-tutorial_v0014_33\external\glm-0.9.4.0" /I"C:\Users\Drew\Documents\DSAII\OPENGL ABSOLUTE\OpenGL-tutorial_v0014_33\external\glew-1.9.0\include" /I"C:\Users\Drew\Documents\DSAII\OPENGL ABSOLUTE\OpenGL-tutorial_v0014_33\external\assimp-3.0.1270\include" /I"C:\Users\Drew\Documents\DSAII\OPENGL ABSOLUTE\OpenGL-tutorial_v0014_33\external\bullet-2.81-rev2613\src" /I"C:\Users\Drew\Documents\DSAII\OPENGL ABSOLUTE\OpenGL-tutorial_v0014_33\." /Zi /nologo /W3 /WX- /Od /Ob0 /D WIN32 /D _WINDOWS /D _DEBUG /D TW_STATIC /D TW_NO_LIB_PRAGMA /D TW_NO_DIRECT3D /D GLEW_STATIC /D _CRT_SECURE_NO_WARNINGS /D "CMAKE_INTDIR=\"Debug\"" /D _MBCS /Gm- /EHsc /RTC1 /MDd /GS /fp:precise /Zc:wchar_t /Zc:forScope /GR /Fo"TUTORIAL18_BILLBOARDS.DIR\DEBUG\\" /Fd"TUTORIAL18_BILLBOARDS.DIR\DEBUG\VC110.PDB" /Gd /TP C:\USERS\DREW\DOCUMENTS\DSAII\OPENGL ABSOLUTE\OPENGL-TUTORIAL_V0014_33\TUTORIAL18_BILLBOARDS_AND_PARTICLES\TUTORIAL18_BILLBOARDS.CPP
^C:\USERS\DREW\DOCUMENTS\DSAII\OPENGL ABSOLUTE\OPENGL-TUTORIAL_V0014_33\COMMON\SHADER.CPP
/c /I"C:\Users\Drew\Documents\DSAII\OPENGL ABSOLUTE\OpenGL-tutorial_v0014_33\external\AntTweakBar-1.16\include" /I"C:\Users\Drew\Documents\DSAII\OPENGL ABSOLUTE\OpenGL-tutorial_v0014_33\external\glfw-3.0.3\include\GLFW" /I"C:\Users\Drew\Documents\DSAII\OPENGL ABSOLUTE\OpenGL-tutorial_v0014_33\external\glm-0.9.4.0" /I"C:\Users\Drew\Documents\DSAII\OPENGL ABSOLUTE\OpenGL-tutorial_v0014_33\external\glew-1.9.0\include" /I"C:\Users\Drew\Documents\DSAII\OPENGL ABSOLUTE\OpenGL-tutorial_v0014_33\external\assimp-3.0.1270\include" /I"C:\Users\Drew\Documents\DSAII\OPENGL ABSOLUTE\OpenGL-tutorial_v0014_33\external\bullet-2.81-rev2613\src" /I"C:\Users\Drew\Documents\DSAII\OPENGL ABSOLUTE\OpenGL-tutorial_v0014_33\." /Zi /nologo /W3 /WX- /Od /Ob0 /D WIN32 /D _WINDOWS /D _DEBUG /D TW_STATIC /D TW_NO_LIB_PRAGMA /D TW_NO_DIRECT3D /D GLEW_STATIC /D _CRT_SECURE_NO_WARNINGS /D "CMAKE_INTDIR=\"Debug\"" /D _MBCS /Gm- /EHsc /RTC1 /MDd /GS /fp:precise /Zc:wchar_t /Zc:forScope /GR /Fo"TUTORIAL18_BILLBOARDS.DIR\DEBUG\\" /Fd"TUTORIAL18_BILLBOARDS.DIR\DEBUG\VC110.PDB" /Gd /TP C:\USERS\DREW\DOCUMENTS\DSAII\OPENGL ABSOLUTE\OPENGL-TUTORIAL_V0014_33\COMMON\SHADER.CPP
^C:\USERS\DREW\DOCUMENTS\DSAII\OPENGL ABSOLUTE\OPENGL-TUTORIAL_V0014_33\COMMON\TEXTURE.CPP
/c /I"C:\Users\Drew\Documents\DSAII\OPENGL ABSOLUTE\OpenGL-tutorial_v0014_33\external\AntTweakBar-1.16\include" /I"C:\Users\Drew\Documents\DSAII\OPENGL ABSOLUTE\OpenGL-tutorial_v0014_33\external\glfw-3.0.3\include\GLFW" /I"C:\Users\Drew\Documents\DSAII\OPENGL ABSOLUTE\OpenGL-tutorial_v0014_33\external\glm-0.9.4.0" /I"C:\Users\Drew\Documents\DSAII\OPENGL ABSOLUTE\OpenGL-tutorial_v0014_33\external\glew-1.9.0\include" /I"C:\Users\Drew\Documents\DSAII\OPENGL ABSOLUTE\OpenGL-tutorial_v0014_33\external\assimp-3.0.1270\include" /I"C:\Users\Drew\Documents\DSAII\OPENGL ABSOLUTE\OpenGL-tutorial_v0014_33\external\bullet-2.81-rev2613\src" /I"C:\Users\Drew\Documents\DSAII\OPENGL ABSOLUTE\OpenGL-tutorial_v0014_33\." /Zi /nologo /W3 /WX- /Od /Ob0 /D WIN32 /D _WINDOWS /D _DEBUG /D TW_STATIC /D TW_NO_LIB_PRAGMA /D TW_NO_DIRECT3D /D GLEW_STATIC /D _CRT_SECURE_NO_WARNINGS /D "CMAKE_INTDIR=\"Debug\"" /D _MBCS /Gm- /EHsc /RTC1 /MDd /GS /fp:precise /Zc:wchar_t /Zc:forScope /GR /Fo"TUTORIAL18_BILLBOARDS.DIR\DEBUG\\" /Fd"TUTORIAL18_BILLBOARDS.DIR\DEBUG\VC110.PDB" /Gd /TP C:\USERS\DREW\DOCUMENTS\DSAII\OPENGL ABSOLUTE\OPENGL-TUTORIAL_V0014_33\COMMON\TEXTURE.CPP
^C:\USERS\DREW\DOCUMENTS\DSAII\OPENGL ABSOLUTE\OPENGL-TUTORIAL_V0014_33\COMMON\CONTROLS.CPP
/c /I"C:\Users\Drew\Documents\DSAII\OPENGL ABSOLUTE\OpenGL-tutorial_v0014_33\external\AntTweakBar-1.16\include" /I"C:\Users\Drew\Documents\DSAII\OPENGL ABSOLUTE\OpenGL-tutorial_v0014_33\external\glfw-3.0.3\include\GLFW" /I"C:\Users\Drew\Documents\DSAII\OPENGL ABSOLUTE\OpenGL-tutorial_v0014_33\external\glm-0.9.4.0" /I"C:\Users\Drew\Documents\DSAII\OPENGL ABSOLUTE\OpenGL-tutorial_v0014_33\external\glew-1.9.0\include" /I"C:\Users\Drew\Documents\DSAII\OPENGL ABSOLUTE\OpenGL-tutorial_v0014_33\external\assimp-3.0.1270\include" /I"C:\Users\Drew\Documents\DSAII\OPENGL ABSOLUTE\OpenGL-tutorial_v0014_33\external\bullet-2.81-rev2613\src" /I"C:\Users\Drew\Documents\DSAII\OPENGL ABSOLUTE\OpenGL-tutorial_v0014_33\." /Zi /nologo /W3 /WX- /Od /Ob0 /D WIN32 /D _WINDOWS /D _DEBUG /D TW_STATIC /D TW_NO_LIB_PRAGMA /D TW_NO_DIRECT3D /D GLEW_STATIC /D _CRT_SECURE_NO_WARNINGS /D "CMAKE_INTDIR=\"Debug\"" /D _MBCS /Gm- /EHsc /RTC1 /MDd /GS /fp:precise /Zc:wchar_t /Zc:forScope /GR /Fo"TUTORIAL18_BILLBOARDS.DIR\DEBUG\\" /Fd"TUTORIAL18_BILLBOARDS.DIR\DEBUG\VC110.PDB" /Gd /TP C:\USERS\DREW\DOCUMENTS\DSAII\OPENGL ABSOLUTE\OPENGL-TUTORIAL_V0014_33\COMMON\CONTROLS.CPP
